…
datasetB <- sample(c(TRUE, FALSE), 1000, replace = TRUE, prob = c(.4, .6)) %>%
  matrix(ncol = 10) %>%
  as_data_frame()
colnames(datasetB) <- paste0("variable", 0:9)

datasetA
{% endhighlight %}



{% highlight text %}
## # A tibble: 100 × 10
##    variable0 variable1 variable2 variable3 variable4 variable5 variable6
##        <lgl>     <lgl>     <lgl>     <lgl>     <lgl>     <lgl>     <lgl>
## 1      FALSE     FALSE      TRUE      TRUE     FALSE     FALSE      TRUE
## 2       TRUE      TRUE      TRUE     FALSE      TRUE     FALSE      TRUE
## 3       TRUE      TRUE      TRUE     FALSE     FALSE     FALSE     FALSE
## 4       TRUE      TRUE     FALSE      TRUE     FALSE      TRUE     FALSE
## 5       TRUE      TRUE     FALSE     FALSE      TRUE      TRUE     FALSE
## 6       TRUE     FALSE     FALSE     FALSE      TRUE      TRUE      TRUE
## 7      FALSE      TRUE     FALSE      TRUE      TRUE      TRUE     FALSE
## 8       TRUE      TRUE      TRUE     FALSE     FALSE      TRUE     FALSE
## 9      FALSE      TRUE      TRUE     FALSE     FALSE      TRUE     FALSE
## 10     FALSE     FALSE      TRUE      TRUE      TRUE     FALSE      TRUE
## # ... with 90 more rows, and 3 more variables: variable7 <lgl>,
## #   variable8 <lgl>, variable9 <lgl>
…
