…
The Tidyverse is largely concerned with manipulating data frames. One of my
favorite data frames that is built into R is called `trees`. The Tidyverse has
its own kind of data frame called a tibble. Let's turn `trees` into a tibble
for our future convenience:


{% highlight r %}
(trees <- trees %>% as_tibble())
{% endhighlight %}



{% highlight text %}
## # A tibble: 31 x 3
##    Girth Height Volume
##    <dbl>  <dbl>  <dbl>
##  1   8.3     70   10.3
##  2   8.6     65   10.3
##  3   8.8     63   10.2
##  4  10.5     72   16.4
##  5  10.7     81   18.8
##  6  10.8     83   19.7
##  7  11       66   15.6
##  8  11       75   18.2
##  9  11.1     80   22.6
## 10  11.2     75   19.9
## # … with 21 more rows
…
{% highlight r %}
trees %>% 
  mutate(Small_Tree = Volume < 19)
{% endhighlight %}



{% highlight text %}
## # A tibble: 31 x 4
##    Girth Height Volume Small_Tree
##    <dbl>  <dbl>  <dbl> <lgl>     
##  1   8.3     70   10.3 TRUE      
##  2   8.6     65   10.3 TRUE      
##  3   8.8     63   10.2 TRUE      
##  4  10.5     72   16.4 TRUE      
##  5  10.7     81   18.8 TRUE      
##  6  10.8     83   19.7 FALSE     
##  7  11       66   15.6 TRUE      
##  8  11       75   18.2 TRUE      
##  9  11.1     80   22.6 FALSE     
## 10  11.2     75   19.9 FALSE     
## # … with 21 more rows
…
Imagine that you only want to look at trees that have a Height greater than 70.
You can use `filter()` to **eliminate rows** from a tibble:


{% highlight r %}
trees %>% 
  mutate(Small_Tree = Volume < 19) %>% 
  filter(Height > 70)
{% endhighlight %}



{% highlight text %}
## # A tibble: 25 x 4
##    Girth Height Volume Small_Tree
##    <dbl>  <dbl>  <dbl> <lgl>     
##  1  10.5     72   16.4 TRUE      
##  2  10.7     81   18.8 TRUE      
##  3  10.8     83   19.7 FALSE     
##  4  11       75   18.2 TRUE      
##  5  11.1     80   22.6 FALSE     
##  6  11.2     75   19.9 FALSE     
##  7  11.3     79   24.2 FALSE     
##  8  11.4     76   21   FALSE     
##  9  11.4     76   21.4 FALSE     
## 10  12       75   19.1 FALSE     
## # … with 15 more rows
…
{% highlight r %}
trees %>% 
  mutate(Small_Tree = Volume < 19) %>% 
  filter(Height > 70) %>% 
  select(Height, Small_Tree)
{% endhighlight %}



{% highlight text %}
## # A tibble: 25 x 2
##    Height Small_Tree
##     <dbl> <lgl>     
##  1     72 TRUE      
##  2     81 TRUE      
##  3     83 FALSE     
##  4     75 TRUE      
##  5     80 FALSE     
##  6     75 FALSE     
##  7     79 FALSE     
##  8     76 FALSE     
##  9     76 FALSE     
## 10     75 FALSE     
## # … with 15 more rows
…
{% highlight r %}
trees %>% 
  mutate(Small_Tree = Volume < 19) %>% 
  filter(Height > 70) %>% 
  select(Height, Small_Tree) %>% 
  group_by(Small_Tree)
{% endhighlight %}



{% highlight text %}
## # A tibble: 25 x 2
## # Groups:   Small_Tree [2]
##    Height Small_Tree
##     <dbl> <lgl>     
##  1     72 TRUE      
##  2     81 TRUE      
##  3     83 FALSE     
##  4     75 TRUE      
##  5     80 FALSE     
##  6     75 FALSE     
##  7     79 FALSE     
##  8     76 FALSE     
##  9     76 FALSE     
## 10     75 FALSE     
## # … with 15 more rows
…
