…
fn_tbl_base
{% endhighlight %}



{% highlight text %}
## # A tibble: 3,190 x 3
##    Package      Function Arg  
##    <chr>        <chr>    <chr>
##  1 package:base -        e1   
##  2 package:base -        e2   
##  3 package:base -.Date   e1   
##  4 package:base -.Date   e2   
##  5 package:base -.POSIXt e1   
##  6 package:base -.POSIXt e2   
##  7 package:base :        <NA> 
##  8 package:base ::       pkg  
##  9 package:base ::       name 
## 10 package:base :::      pkg  
## # … with 3,180 more rows
…
# Individual Arguments

To get back on task, let's look at the most common arguments in `base`, assuming
I want to write my own functions that integrate well with the `base` package:


{% highlight r %}
fn_tbl_base %>% 
  count(Arg, sort = TRUE)
{% endhighlight %}



{% highlight text %}
## # A tibble: 586 x 2
##    Arg        n
##    <chr>  <int>
##  1 x        621
##  2 ...      443
##  3 <NA>      73
##  4 value     62
##  5 object    31
##  6 expr      29
##  7 con       28
##  8 e1        28
##  9 e2        28
## 10 na.rm     28
## # … with 576 more rows
…
Let's see which functions have the most arguments:


{% highlight r %}
fn_tbl_ggp2_n_args %>% 
  arrange(desc(Count))
{% endhighlight %}



{% highlight text %}
## # A tibble: 405 x 3
##    Package         Function         Count
##    <chr>           <chr>            <int>
##  1 package:ggplot2 theme               95
##  2 package:ggplot2 guide_colorbar      28
##  3 package:ggplot2 guide_colourbar     28
##  4 package:ggplot2 guide_bins          23
##  5 package:ggplot2 guide_legend        21
##  6 package:ggplot2 stat_summary_bin    20
##  7 package:ggplot2 binned_scale        19
##  8 package:ggplot2 geom_boxplot        19
##  9 package:ggplot2 geom_dotplot        19
## 10 package:ggplot2 continuous_scale    17
## # … with 395 more rows
…
